[{"title":"nisi vulputate nonummy maecenas tincidunt lacus at","description":"convallis duis consequat dui nec nisi volutpat eleifend donec ut dolor morbi vel lectus in quam fringilla","expiration_date":"2021-11-16T13:00:44Z","completed":false},
{"title":"sapien a libero nam dui proin","description":"mauris vulputate elementum nullam varius nulla facilisi cras non velit","expiration_date":"2022-02-01T21:32:07Z","completed":false},
{"title":"venenatis non sodales sed tincidunt eu felis fusce posuere felis","description":"aliquet pulvinar sed nisl nunc rhoncus dui vel sem sed sagittis nam congue risus semper porta volutpat","expiration_date":"2021-08-30T03:01:57Z","completed":true},
{"title":"lacinia nisi venenatis tristique fusce congue diam id","description":"nec euismod scelerisque quam turpis adipiscing lorem vitae mattis nibh ligula nec sem duis aliquam convallis nunc proin","expiration_date":"2021-08-17T16:07:22Z","completed":true},
{"title":"rhoncus sed vestibulum sit amet cursus id turpis","description":"mi sit amet lobortis sapien sapien non mi integer ac neque duis bibendum morbi non quam","expiration_date":"2021-10-17T13:13:50Z","completed":false},
{"title":"neque libero convallis eget eleifend luctus ultricies eu nibh quisque","description":"sapien placerat ante nulla justo aliquam quis turpis eget elit sodales scelerisque mauris sit amet eros","expiration_date":"2021-05-26T07:28:05Z","completed":true},
{"title":"integer a nibh in quis justo maecenas rhoncus aliquam","description":"nisl nunc nisl duis bibendum felis sed interdum venenatis turpis enim blandit mi in porttitor pede justo eu massa donec","expiration_date":"2022-04-20T15:35:52Z","completed":true},
{"title":"odio curabitur convallis duis consequat dui","description":"platea dictumst maecenas ut massa quis augue luctus tincidunt nulla mollis molestie lorem quisque ut erat curabitur gravida","expiration_date":"2021-11-01T22:52:29Z","completed":true},
{"title":"rutrum ac lobortis vel dapibus at diam","description":"vel augue vestibulum rutrum rutrum neque aenean auctor gravida sem praesent id massa id nisl","expiration_date":"2021-05-28T07:16:29Z","completed":true},
{"title":"condimentum id luctus nec molestie sed justo","description":"nibh in quis justo maecenas rhoncus aliquam lacus morbi quis tortor id nulla","expiration_date":"2022-02-08T13:54:02Z","completed":false},
{"title":"vestibulum ante ipsum primis in faucibus orci","description":"fermentum donec ut mauris eget massa tempor convallis nulla neque libero convallis eget","expiration_date":"2021-10-25T18:18:33Z","completed":false},
{"title":"dapibus at diam nam tristique tortor","description":"consequat in consequat ut nulla sed accumsan felis ut at dolor quis odio consequat varius integer ac leo pellentesque ultrices","expiration_date":"2021-10-13T02:04:49Z","completed":true},
{"title":"lorem integer tincidunt ante vel","description":"ultrices erat tortor sollicitudin mi sit amet lobortis sapien sapien non mi integer ac neque duis","expiration_date":"2021-07-27T00:32:34Z","completed":false},
{"title":"lobortis sapien sapien non mi integer ac neque","description":"mauris morbi non lectus aliquam sit amet diam in magna bibendum","expiration_date":"2021-07-08T15:12:41Z","completed":true},
{"title":"mauris viverra diam vitae quam suspendisse potenti nullam porttitor","description":"odio in hac habitasse platea dictumst maecenas ut massa quis augue luctus tincidunt nulla mollis","expiration_date":"2021-06-20T04:15:34Z","completed":true},
{"title":"vulputate justo in blandit ultrices enim lorem ipsum dolor","description":"ut blandit non interdum in ante vestibulum ante ipsum primis in faucibus orci luctus et","expiration_date":"2021-06-27T01:46:21Z","completed":true},
{"title":"orci eget orci vehicula condimentum curabitur","description":"a libero nam dui proin leo odio porttitor id consequat in consequat ut nulla sed","expiration_date":"2021-12-20T05:18:16Z","completed":true},
{"title":"eget rutrum at lorem integer tincidunt ante","description":"turpis a pede posuere nonummy integer non velit donec diam neque","expiration_date":"2022-01-21T01:33:22Z","completed":true},
{"title":"in consequat ut nulla sed accumsan felis","description":"lobortis est phasellus sit amet erat nulla tempus vivamus in felis eu sapien cursus vestibulum proin eu mi","expiration_date":"2021-04-19T16:16:52Z","completed":false},
{"title":"consequat nulla nisl nunc nisl duis bibendum felis sed","description":"sed magna at nunc commodo placerat praesent blandit nam nulla integer pede justo lacinia eget tincidunt eget tempus","expiration_date":"2022-01-17T06:24:25Z","completed":true},
{"title":"imperdiet sapien urna pretium nisl ut volutpat sapien","description":"nulla ut erat id mauris vulputate elementum nullam varius nulla facilisi","expiration_date":"2021-06-12T17:18:41Z","completed":false},
{"title":"vehicula condimentum curabitur in libero","description":"et tempus semper est quam pharetra magna ac consequat metus sapien ut","expiration_date":"2021-04-23T17:11:14Z","completed":true},
{"title":"pede venenatis non sodales sed tincidunt eu felis fusce","description":"rutrum at lorem integer tincidunt ante vel ipsum praesent blandit lacinia erat","expiration_date":"2022-02-07T21:46:49Z","completed":false},
{"title":"luctus et ultrices posuere cubilia curae donec pharetra magna","description":"tincidunt ante vel ipsum praesent blandit lacinia erat vestibulum sed magna at nunc commodo placerat praesent blandit nam nulla integer","expiration_date":"2021-08-06T05:03:33Z","completed":false},
{"title":"turpis enim blandit mi in porttitor pede justo eu","description":"ante ipsum primis in faucibus orci luctus et ultrices posuere cubilia curae nulla dapibus dolor vel est donec","expiration_date":"2021-04-01T06:45:05Z","completed":true},
{"title":"neque sapien placerat ante nulla justo aliquam","description":"fusce consequat nulla nisl nunc nisl duis bibendum felis sed interdum venenatis turpis enim blandit mi in","expiration_date":"2021-03-20T01:08:30Z","completed":true},
{"title":"vulputate vitae nisl aenean lectus pellentesque","description":"justo pellentesque viverra pede ac diam cras pellentesque volutpat dui maecenas tristique est et","expiration_date":"2021-11-24T04:10:55Z","completed":true},
{"title":"rutrum nulla tellus in sagittis dui","description":"fringilla rhoncus mauris enim leo rhoncus sed vestibulum sit amet cursus id turpis integer aliquet massa id lobortis","expiration_date":"2022-02-16T19:12:22Z","completed":false},
{"title":"primis in faucibus orci luctus et ultrices posuere cubilia","description":"tellus nisi eu orci mauris lacinia sapien quis libero nullam","expiration_date":"2021-12-05T15:30:38Z","completed":false},
{"title":"quis libero nullam sit amet","description":"volutpat eleifend donec ut dolor morbi vel lectus in quam fringilla rhoncus mauris enim leo rhoncus","expiration_date":"2021-06-13T08:00:13Z","completed":false},
{"title":"natoque penatibus et magnis dis","description":"nulla integer pede justo lacinia eget tincidunt eget tempus vel pede morbi porttitor","expiration_date":"2022-03-27T22:17:45Z","completed":false},
{"title":"mattis egestas metus aenean fermentum donec ut","description":"mauris eget massa tempor convallis nulla neque libero convallis eget eleifend luctus ultricies eu nibh quisque","expiration_date":"2022-04-07T16:54:16Z","completed":false},
{"title":"id turpis integer aliquet massa id lobortis convallis tortor risus","description":"nonummy integer non velit donec diam neque vestibulum eget vulputate ut ultrices","expiration_date":"2021-09-13T06:36:06Z","completed":true},
{"title":"morbi vestibulum velit id pretium iaculis diam","description":"et commodo vulputate justo in blandit ultrices enim lorem ipsum dolor sit","expiration_date":"2021-12-31T01:35:37Z","completed":false},
{"title":"orci luctus et ultrices posuere","description":"in faucibus orci luctus et ultrices posuere cubilia curae nulla dapibus dolor vel est","expiration_date":"2021-10-04T15:53:13Z","completed":true},
{"title":"suspendisse potenti nullam porttitor lacus at turpis donec posuere","description":"montes nascetur ridiculus mus etiam vel augue vestibulum rutrum rutrum neque aenean auctor gravida sem praesent id massa","expiration_date":"2022-01-09T04:40:45Z","completed":false},
{"title":"quisque id justo sit amet sapien dignissim vestibulum vestibulum ante","description":"accumsan odio curabitur convallis duis consequat dui nec nisi volutpat eleifend donec ut dolor","expiration_date":"2021-03-02T01:15:25Z","completed":false},
{"title":"ut nulla sed accumsan felis ut at dolor","description":"pretium iaculis justo in hac habitasse platea dictumst etiam faucibus cursus urna ut tellus nulla ut erat id mauris vulputate","expiration_date":"2021-09-08T23:55:38Z","completed":false},
{"title":"dui vel sem sed sagittis nam congue","description":"non interdum in ante vestibulum ante ipsum primis in faucibus orci luctus et ultrices posuere cubilia curae duis","expiration_date":"2022-04-11T02:17:44Z","completed":false},
{"title":"a pede posuere nonummy integer non velit","description":"vehicula condimentum curabitur in libero ut massa volutpat convallis morbi","expiration_date":"2021-06-18T16:42:51Z","completed":false},
{"title":"turpis a pede posuere nonummy integer non velit donec","description":"ipsum primis in faucibus orci luctus et ultrices posuere cubilia curae duis faucibus accumsan odio curabitur convallis duis consequat","expiration_date":"2022-03-15T06:35:29Z","completed":true},
{"title":"dui nec nisi volutpat eleifend donec ut dolor morbi vel","description":"turpis elementum ligula vehicula consequat morbi a ipsum integer a nibh in quis justo maecenas rhoncus","expiration_date":"2022-03-28T02:22:33Z","completed":true},
{"title":"posuere felis sed lacus morbi sem mauris laoreet ut rhoncus","description":"metus sapien ut nunc vestibulum ante ipsum primis in faucibus orci luctus et ultrices posuere cubilia","expiration_date":"2021-08-19T22:15:58Z","completed":true},
{"title":"donec diam neque vestibulum eget vulputate","description":"in felis eu sapien cursus vestibulum proin eu mi nulla ac enim in tempor turpis nec euismod scelerisque quam turpis","expiration_date":"2021-08-14T10:13:36Z","completed":true},
{"title":"nibh ligula nec sem duis aliquam convallis","description":"nibh fusce lacus purus aliquet at feugiat non pretium quis","expiration_date":"2021-04-03T22:30:06Z","completed":true},
{"title":"in porttitor pede justo eu massa donec dapibus","description":"orci nullam molestie nibh in lectus pellentesque at nulla suspendisse","expiration_date":"2021-03-13T00:34:14Z","completed":true},
{"title":"tortor id nulla ultrices aliquet maecenas leo","description":"non sodales sed tincidunt eu felis fusce posuere felis sed lacus morbi sem","expiration_date":"2021-04-18T22:18:11Z","completed":true},
{"title":"habitasse platea dictumst etiam faucibus cursus","description":"in leo maecenas pulvinar lobortis est phasellus sit amet erat nulla tempus","expiration_date":"2021-11-01T05:08:33Z","completed":false},
{"title":"tempus vel pede morbi porttitor lorem id ligula suspendisse","description":"turpis a pede posuere nonummy integer non velit donec diam neque vestibulum eget vulputate ut ultrices vel augue","expiration_date":"2022-01-21T05:11:06Z","completed":true},
{"title":"sapien quis libero nullam sit amet turpis elementum ligula","description":"hendrerit at vulputate vitae nisl aenean lectus pellentesque eget nunc","expiration_date":"2022-04-25T04:45:53Z","completed":true},
{"title":"sodales sed tincidunt eu felis fusce posuere felis sed","description":"justo lacinia eget tincidunt eget tempus vel pede morbi porttitor lorem id","expiration_date":"2022-03-23T17:54:01Z","completed":false},
{"title":"erat vestibulum sed magna at","description":"ornare imperdiet sapien urna pretium nisl ut volutpat sapien arcu sed augue aliquam erat volutpat in congue etiam justo","expiration_date":"2021-07-18T00:39:34Z","completed":false},
{"title":"proin risus praesent lectus vestibulum quam","description":"orci luctus et ultrices posuere cubilia curae duis faucibus accumsan odio curabitur convallis duis consequat dui nec","expiration_date":"2021-12-18T23:13:23Z","completed":true},
{"title":"velit vivamus vel nulla eget eros elementum pellentesque","description":"sed interdum venenatis turpis enim blandit mi in porttitor pede justo eu massa donec dapibus duis","expiration_date":"2021-12-17T23:19:24Z","completed":false},
{"title":"venenatis tristique fusce congue diam id ornare","description":"vivamus metus arcu adipiscing molestie hendrerit at vulputate vitae nisl","expiration_date":"2022-01-14T03:15:32Z","completed":false},
{"title":"ipsum dolor sit amet consectetuer adipiscing","description":"vel augue vestibulum rutrum rutrum neque aenean auctor gravida sem","expiration_date":"2022-01-02T07:07:27Z","completed":true},
{"title":"lectus pellentesque at nulla suspendisse","description":"vel augue vestibulum rutrum rutrum neque aenean auctor gravida sem praesent id massa id nisl venenatis","expiration_date":"2021-07-14T15:51:07Z","completed":false},
{"title":"at nulla suspendisse potenti cras in purus","description":"morbi vestibulum velit id pretium iaculis diam erat fermentum justo nec condimentum neque sapien placerat ante nulla","expiration_date":"2021-04-17T00:32:37Z","completed":false},
{"title":"vehicula consequat morbi a ipsum integer a nibh in","description":"proin interdum mauris non ligula pellentesque ultrices phasellus id sapien in sapien iaculis congue","expiration_date":"2022-03-19T17:25:56Z","completed":false},
{"title":"id nulla ultrices aliquet maecenas leo odio condimentum id luctus","description":"donec odio justo sollicitudin ut suscipit a feugiat et eros vestibulum","expiration_date":"2022-01-15T11:43:50Z","completed":false},
{"title":"in tempus sit amet sem","description":"consequat varius integer ac leo pellentesque ultrices mattis odio donec vitae nisi nam ultrices libero non","expiration_date":"2021-08-11T01:19:01Z","completed":true},
{"title":"fringilla rhoncus mauris enim leo rhoncus sed vestibulum","description":"hac habitasse platea dictumst etiam faucibus cursus urna ut tellus nulla ut","expiration_date":"2021-03-07T03:41:37Z","completed":false},
{"title":"nibh in quis justo maecenas rhoncus aliquam","description":"ridiculus mus etiam vel augue vestibulum rutrum rutrum neque aenean auctor gravida sem praesent id massa","expiration_date":"2021-07-27T22:53:34Z","completed":true},
{"title":"sapien urna pretium nisl ut volutpat sapien arcu sed augue","description":"nascetur ridiculus mus etiam vel augue vestibulum rutrum rutrum neque aenean auctor gravida sem","expiration_date":"2021-10-21T12:07:28Z","completed":false},
{"title":"at lorem integer tincidunt ante vel","description":"pretium nisl ut volutpat sapien arcu sed augue aliquam erat volutpat in congue etiam justo etiam pretium iaculis","expiration_date":"2021-08-01T05:59:18Z","completed":true},
{"title":"eget semper rutrum nulla nunc purus phasellus in","description":"habitasse platea dictumst etiam faucibus cursus urna ut tellus nulla ut erat","expiration_date":"2021-05-29T20:20:12Z","completed":false},
{"title":"felis fusce posuere felis sed lacus morbi sem","description":"ante vivamus tortor duis mattis egestas metus aenean fermentum donec ut mauris eget","expiration_date":"2021-06-30T14:39:51Z","completed":true},
{"title":"non interdum in ante vestibulum ante ipsum primis in","description":"elementum nullam varius nulla facilisi cras non velit nec nisi vulputate","expiration_date":"2021-10-24T22:17:17Z","completed":false},
{"title":"justo aliquam quis turpis eget elit sodales scelerisque mauris","description":"curae donec pharetra magna vestibulum aliquet ultrices erat tortor sollicitudin mi sit amet lobortis sapien sapien non mi integer","expiration_date":"2022-03-04T18:50:23Z","completed":true},
{"title":"ante ipsum primis in faucibus orci","description":"turpis a pede posuere nonummy integer non velit donec diam neque vestibulum","expiration_date":"2021-03-08T00:01:57Z","completed":false},
{"title":"ridiculus mus etiam vel augue vestibulum rutrum rutrum","description":"faucibus orci luctus et ultrices posuere cubilia curae duis faucibus accumsan odio","expiration_date":"2022-03-25T09:39:35Z","completed":true},
{"title":"suspendisse accumsan tortor quis turpis sed ante vivamus tortor duis","description":"rhoncus sed vestibulum sit amet cursus id turpis integer aliquet massa id lobortis convallis tortor risus dapibus augue vel accumsan","expiration_date":"2021-05-01T13:49:33Z","completed":true},
{"title":"in tempus sit amet sem","description":"justo eu massa donec dapibus duis at velit eu est congue elementum in hac","expiration_date":"2022-03-17T03:14:13Z","completed":true},
{"title":"massa tempor convallis nulla neque libero","description":"est congue elementum in hac habitasse platea dictumst morbi vestibulum velit id pretium iaculis diam erat fermentum","expiration_date":"2021-08-06T06:42:03Z","completed":false},
{"title":"eros vestibulum ac est lacinia","description":"placerat praesent blandit nam nulla integer pede justo lacinia eget","expiration_date":"2022-04-25T16:55:30Z","completed":true},
{"title":"lorem ipsum dolor sit amet","description":"morbi non quam nec dui luctus rutrum nulla tellus in sagittis dui","expiration_date":"2021-05-30T06:15:17Z","completed":true},
{"title":"urna pretium nisl ut volutpat","description":"tempor turpis nec euismod scelerisque quam turpis adipiscing lorem vitae mattis nibh ligula nec sem duis","expiration_date":"2021-10-12T07:01:27Z","completed":false},
{"title":"rhoncus aliquam lacus morbi quis tortor id nulla ultrices aliquet","description":"lacus at turpis donec posuere metus vitae ipsum aliquam non mauris morbi","expiration_date":"2021-11-05T13:08:00Z","completed":true},
{"title":"quis orci nullam molestie nibh in lectus pellentesque at nulla","description":"eget elit sodales scelerisque mauris sit amet eros suspendisse accumsan tortor quis","expiration_date":"2022-02-20T08:14:11Z","completed":true},
{"title":"ornare imperdiet sapien urna pretium","description":"nullam varius nulla facilisi cras non velit nec nisi vulputate nonummy maecenas tincidunt lacus at velit","expiration_date":"2021-12-31T13:34:57Z","completed":true},
{"title":"dapibus at diam nam tristique","description":"molestie lorem quisque ut erat curabitur gravida nisi at nibh in hac habitasse platea dictumst aliquam","expiration_date":"2021-04-13T10:26:09Z","completed":true},
{"title":"est lacinia nisi venenatis tristique fusce","description":"tortor duis mattis egestas metus aenean fermentum donec ut mauris eget massa tempor convallis nulla neque libero convallis","expiration_date":"2021-11-10T01:15:29Z","completed":false},
{"title":"morbi a ipsum integer a nibh in quis justo maecenas","description":"ligula in lacus curabitur at ipsum ac tellus semper interdum mauris ullamcorper purus sit amet nulla quisque arcu libero","expiration_date":"2021-11-05T12:32:06Z","completed":true},
{"title":"sapien dignissim vestibulum vestibulum ante ipsum","description":"turpis eget elit sodales scelerisque mauris sit amet eros suspendisse","expiration_date":"2021-07-15T21:52:31Z","completed":true},
{"title":"bibendum imperdiet nullam orci pede venenatis","description":"nascetur ridiculus mus etiam vel augue vestibulum rutrum rutrum neque aenean auctor gravida sem praesent","expiration_date":"2021-05-13T01:07:09Z","completed":true},
{"title":"erat tortor sollicitudin mi sit","description":"dapibus dolor vel est donec odio justo sollicitudin ut suscipit a feugiat et eros vestibulum ac est lacinia nisi venenatis","expiration_date":"2021-12-16T09:00:00Z","completed":true},
{"title":"mauris morbi non lectus aliquam sit","description":"pellentesque ultrices mattis odio donec vitae nisi nam ultrices libero non mattis pulvinar nulla pede ullamcorper augue a suscipit","expiration_date":"2021-04-21T06:26:10Z","completed":false},
{"title":"quam turpis adipiscing lorem vitae","description":"sodales sed tincidunt eu felis fusce posuere felis sed lacus morbi sem mauris","expiration_date":"2021-09-02T09:54:17Z","completed":true},
{"title":"sed magna at nunc commodo placerat","description":"in purus eu magna vulputate luctus cum sociis natoque penatibus et magnis dis parturient montes nascetur ridiculus","expiration_date":"2022-04-22T02:33:44Z","completed":true},
{"title":"commodo vulputate justo in blandit ultrices enim lorem ipsum dolor","description":"morbi non quam nec dui luctus rutrum nulla tellus in sagittis dui vel","expiration_date":"2021-12-24T04:42:09Z","completed":false},
{"title":"leo odio porttitor id consequat in","description":"ultrices posuere cubilia curae mauris viverra diam vitae quam suspendisse","expiration_date":"2022-01-06T22:28:22Z","completed":false},
{"title":"urna pretium nisl ut volutpat sapien arcu sed augue aliquam","description":"placerat ante nulla justo aliquam quis turpis eget elit sodales scelerisque mauris","expiration_date":"2021-04-12T07:57:20Z","completed":false},
{"title":"cursus urna ut tellus nulla ut","description":"commodo placerat praesent blandit nam nulla integer pede justo lacinia eget tincidunt eget tempus vel pede morbi porttitor","expiration_date":"2022-03-14T21:55:02Z","completed":true},
{"title":"ultrices enim lorem ipsum dolor sit amet","description":"id lobortis convallis tortor risus dapibus augue vel accumsan tellus","expiration_date":"2021-11-02T16:24:18Z","completed":false},
{"title":"aliquam sit amet diam in magna","description":"rhoncus mauris enim leo rhoncus sed vestibulum sit amet cursus id turpis integer aliquet massa id","expiration_date":"2021-09-15T11:58:36Z","completed":false},
{"title":"platea dictumst aliquam augue quam sollicitudin","description":"vitae nisl aenean lectus pellentesque eget nunc donec quis orci eget orci vehicula condimentum curabitur in libero","expiration_date":"2022-03-20T12:22:40Z","completed":false},
{"title":"fusce congue diam id ornare imperdiet sapien urna pretium nisl","description":"sed lacus morbi sem mauris laoreet ut rhoncus aliquet pulvinar sed","expiration_date":"2021-10-25T07:31:58Z","completed":false},
{"title":"est risus auctor sed tristique in tempus sit amet","description":"a odio in hac habitasse platea dictumst maecenas ut massa quis augue luctus tincidunt nulla mollis molestie lorem quisque","expiration_date":"2022-01-27T21:41:19Z","completed":true},
{"title":"velit id pretium iaculis diam erat fermentum justo nec","description":"eros vestibulum ac est lacinia nisi venenatis tristique fusce congue diam id ornare imperdiet sapien urna pretium nisl ut volutpat","expiration_date":"2021-09-15T02:43:50Z","completed":false},
{"title":"in lectus pellentesque at nulla suspendisse potenti cras","description":"porta volutpat quam pede lobortis ligula sit amet eleifend pede libero quis orci nullam molestie nibh in lectus pellentesque","expiration_date":"2021-08-07T09:37:59Z","completed":false}]